<svg width="61" height="43" viewBox="0 0 61 43" fill="none" xmlns="http://www.w3.org/2000/svg">
<g clip-path="url(#clip0)">
<path fill-rule="evenodd" clip-rule="evenodd" d="M48.3894 10.4179L30.5 0.0249023L13.5671 9.86222H7.60389C6.65916 9.86222 5.77282 10.0438 4.94487 10.407C4.11691 10.7701 3.3898 11.2668 2.76352 11.897C2.14786 12.5165 1.65958 13.2428 1.29868 14.0759C0.937776 14.9091 0.757324 15.801 0.757324 16.7516C0.757324 17.7022 0.937776 18.5994 1.29868 19.4432C1.65958 20.2764 2.14786 21.008 2.76352 21.6382C3.3898 22.2577 4.11691 22.7491 4.94487 23.1122C5.77282 23.4754 6.65916 23.6569 7.60389 23.6569H12.1735C12.2594 23.6569 12.3437 23.6613 12.4265 23.6698V28.2263C12.3437 28.2349 12.2594 28.2392 12.1735 28.2392H2.0311V32.8374H12.1735C12.872 32.8374 13.5385 32.7382 14.1732 32.5397L30.5 42.0249L47.5835 32.1001C48.253 32.4305 48.9539 32.6976 49.6863 32.9015C50.6947 33.1899 51.7403 33.3341 52.823 33.3341C54.2347 33.3341 55.5987 33.0884 56.915 32.5971C58.2312 32.1058 59.4201 31.4008 60.4816 30.4822L58.0613 26.4768C57.3927 27.2031 56.6018 27.7639 55.6889 28.1591C54.7761 28.5436 53.8208 28.7358 52.823 28.7358C51.8146 28.7358 50.8698 28.5436 49.9888 28.1591C49.4799 27.9369 49.0081 27.6685 48.5736 27.3537V15.5222C49.0081 15.2074 49.4799 14.939 49.9888 14.7168C50.8698 14.3323 51.8146 14.1401 52.823 14.1401C53.8208 14.1401 54.7761 14.3376 55.6889 14.7328C56.6018 15.1173 57.3927 15.6728 58.0613 16.3991L60.4816 12.3937C59.4201 11.4644 58.2312 10.7594 56.915 10.2788C55.5987 9.78747 54.2347 9.54184 52.823 9.54184C51.7403 9.54184 50.6947 9.68602 49.6863 9.97437C49.2425 10.0979 48.8102 10.2457 48.3894 10.4179ZM48.3894 10.4179C47.8643 10.6327 47.3572 10.8854 46.8681 11.176C45.9976 11.6887 45.2015 12.3082 44.4797 13.0345C43.7579 13.7609 43.1369 14.5673 42.6168 15.4538C42.1073 16.3297 41.7093 17.275 41.4226 18.2897C41.1467 19.3044 41.0087 20.3564 41.0087 21.446C41.0087 22.5355 41.1467 23.5875 41.4226 24.6023C41.7093 25.6062 42.1073 26.5516 42.6168 27.4381C43.1369 28.3139 43.7579 29.115 44.4797 29.8414C45.2015 30.5676 45.9976 31.1925 46.8681 31.7159C47.1024 31.8522 47.3409 31.9803 47.5835 32.1001L48.5736 31.5249V27.3537C48.2558 27.1236 47.9581 26.8686 47.6801 26.5889C47.022 25.9267 46.5018 25.1576 46.1197 24.2818C45.7376 23.3953 45.5465 22.45 45.5465 21.446C45.5465 20.442 45.7376 19.4966 46.1197 18.6101C46.5018 17.7129 47.022 16.9385 47.6801 16.287C47.9581 16.0073 48.2558 15.7523 48.5736 15.5222V10.5249L48.3894 10.4179ZM12.4265 19.0631V23.6698C12.6507 23.6929 12.8636 23.7474 13.0652 23.8332C13.3412 23.9507 13.58 24.1162 13.7817 24.3298C13.994 24.5328 14.1585 24.7731 14.2753 25.0509C14.392 25.3285 14.4504 25.6276 14.4504 25.9481C14.4504 26.2685 14.392 26.5676 14.2753 26.8452C14.1585 27.123 13.994 27.3687 13.7817 27.5823C13.58 27.7852 13.3412 27.9455 13.0652 28.0629C12.8636 28.1488 12.6507 28.2032 12.4265 28.2263V31.5249L14.1732 32.5397C14.3969 32.4696 14.6167 32.3873 14.8326 32.2926C15.6712 31.9295 16.3983 31.4381 17.0139 30.8186C17.6402 30.1884 18.1285 29.4568 18.4788 28.6237C18.8397 27.7906 19.0201 26.8987 19.0201 25.9481C19.0201 24.9974 18.8397 24.1055 18.4788 23.2724C18.1285 22.4286 17.6402 21.697 17.0139 21.0775C16.3983 20.4473 15.6712 19.9559 14.8326 19.6035C14.0789 19.2729 13.2769 19.0928 12.4265 19.0631ZM12.4265 19.0631V14.4605H18.0807V9.86222H13.5671L12.4265 10.5249V14.4605H7.60389C7.28543 14.4605 6.98822 14.5192 6.71223 14.6367C6.43624 14.7542 6.1921 14.9197 5.97981 15.1334C5.77813 15.3363 5.61891 15.5766 5.50214 15.8544C5.38538 16.1321 5.327 16.4312 5.327 16.7516C5.327 17.072 5.38538 17.3764 5.50214 17.6648C5.61891 17.9426 5.77813 18.1882 5.97981 18.4018C6.1921 18.6048 6.43624 18.765 6.71223 18.8825C6.98822 19 7.28543 19.0587 7.60389 19.0587H12.1735C12.2583 19.0587 12.3427 19.0602 12.4265 19.0631ZM36.6938 32.5971C38.01 32.1058 39.1988 31.4008 40.2603 30.4822L37.8402 26.4768C37.1714 27.2031 36.3806 27.7639 35.4678 28.1591C34.5548 28.5436 33.5995 28.7358 32.6018 28.7358C31.5933 28.7358 30.6487 28.5436 29.7676 28.1591C28.8865 27.7746 28.117 27.2511 27.4589 26.5889C26.8008 25.9267 26.2807 25.1576 25.8985 24.2818C25.5164 23.3953 25.3253 22.45 25.3253 21.446C25.3253 20.442 25.5164 19.4966 25.8985 18.6101C26.2807 17.7129 26.8008 16.9385 27.4589 16.287C28.117 15.6248 28.8865 15.1013 29.7676 14.7168C30.6487 14.3323 31.5933 14.1401 32.6018 14.1401C33.5995 14.1401 34.5548 14.3376 35.4678 14.7328C36.3806 15.1173 37.1714 15.6728 37.8402 16.3991L40.2603 12.3937C39.1988 11.4644 38.01 10.7594 36.6938 10.2788C35.3775 9.78747 34.0135 9.54184 32.6018 9.54184C31.519 9.54184 30.4735 9.68602 29.4651 9.97437C28.4673 10.2521 27.5279 10.6527 26.6468 11.176C25.7765 11.6887 24.9803 12.3082 24.2585 13.0345C23.5367 13.7609 22.9158 14.5673 22.3956 15.4538C21.8861 16.3297 21.488 17.275 21.2015 18.2897C20.9255 19.3044 20.7875 20.3564 20.7875 21.446C20.7875 22.5355 20.9255 23.5875 21.2015 24.6023C21.488 25.6062 21.8861 26.5516 22.3956 27.4381C22.9158 28.3139 23.5367 29.115 24.2585 29.8414C24.9803 30.5676 25.7765 31.1925 26.6468 31.7159C27.5279 32.2286 28.4673 32.6238 29.4651 32.9015C30.4735 33.1899 31.519 33.3341 32.6018 33.3341C34.0135 33.3341 35.3775 33.0884 36.6938 32.5971Z" fill="#2788F1"/>
</g>
<defs>
<clipPath id="clip0">
<rect width="60" height="42" fill="white" transform="translate(0.5 0.0249023)"/>
</clipPath>
</defs>
</svg>
